Size Count Type
0.006215 0.000000 PEG
0.006659 0.000000 PEG
0.007135 0.000000 PEG
0.007646 0.000000 PEG
0.008192 0.000000 PEG
0.008778 0.000000 PEG
0.009406 0.000000 PEG
0.010079 0.000000 PEG
0.010800 0.000000 PEG
0.011572 0.000000 PEG
0.012400 0.000000 PEG
0.013286 0.000000 PEG
0.014237 0.000000 PEG
0.015255 0.000000 PEG
0.016346 0.000000 PEG
0.017515 0.000000 PEG
0.018768 0.000000 PEG
0.020110 0.000000 PEG
0.021548 0.000000 PEG
0.023089 0.000000 PEG
0.024741 0.000000 PEG
0.026510 0.000000 PEG
0.028406 0.000000 PEG
0.030438 0.000000 PEG
0.032614 0.000000 PEG
0.034947 0.000000 PEG
0.037446 0.000000 PEG
0.040125 0.000000 PEG
0.042994 0.000000 PEG
0.046069 0.000000 PEG
0.049364 0.000000 PEG
0.052894 0.000000 PEG
0.056677 0.000000 PEG
0.060731 0.000000 PEG
0.065074 0.000000 PEG
0.069728 0.000000 PEG
0.074715 0.000000 PEG
0.080059 0.000000 PEG
0.085785 0.000000 PEG
0.091920 0.000000 PEG
0.098494 0.000000 PEG
0.105538 0.000000 PEG
0.113086 0.000000 PEG
0.121174 0.000000 PEG
0.129841 0.000000 PEG
0.139127 0.000000 PEG
0.149077 0.000000 PEG
0.159739 0.000000 PEG
0.171163 0.000000 PEG
0.183405 0.000000 PEG
0.196522 0.000000 PEG
0.210577 0.000000 PEG
0.225637 0.000000 PEG
0.241774 0.000000 PEG
0.259066 0.000000 PEG
0.277594 0.000000 PEG
0.297447 0.000000 PEG
0.318721 0.000000 PEG
0.341515 0.000000 PEG
0.365940 0.000000 PEG
0.392112 0.000000 PEG
0.420156 0.000000 PEG
0.450205 0.000000 PEG
0.482403 0.000000 PEG
0.516904 0.000000 PEG
0.553873 0.000000 PEG
0.593486 0.000000 PEG
0.635931 0.000000 PEG
0.681413 0.000000 PEG
0.730147 0.000000 PEG
0.782366 0.000000 PEG
0.838321 0.000000 PEG
0.898277 0.000000 PEG
0.962521 0.000000 PEG
1.031360 0.000000 PEG
1.105122 0.000000 PEG
1.184160 0.000000 PEG
1.268850 0.000000 PEG
1.359597 0.000000 PEG
1.456835 0.000000 PEG
1.561026 0.000000 PEG
1.672670 0.000000 PEG
1.792298 0.000000 PEG
1.920482 0.000000 PEG
2.057834 0.000000 PEG
2.205008 0.000000 PEG
2.362709 0.000000 PEG
2.531688 0.000000 PEG
2.712753 0.000000 PEG
2.906767 0.000000 PEG
3.114657 0.000000 PEG
3.337415 0.000000 PEG
3.576105 0.000000 PEG
3.831865 0.000000 PEG
4.105918 0.000000 PEG
4.399570 0.000000 PEG
4.714224 0.000000 PEG
5.051382 0.000000 PEG
5.412654 0.000000 PEG
5.799763 0.000000 PEG
6.214558 0.000000 PEG
6.659019 0.000000 PEG
7.135267 0.000000 PEG
7.645577 0.000000 PEG
8.192383 0.000000 PEG
8.778296 0.000000 PEG
9.406114 0.000000 PEG
10.078833 0.000000 PEG
10.799664 0.000000 PEG
11.572048 0.000000 PEG
12.399673 0.000000 PEG
13.286489 0.000000 PEG
14.236730 0.000000 PEG
15.254931 0.000000 PEG
16.345953 0.000000 PEG
17.515004 0.000000 PEG
18.767665 0.000000 PEG
20.109915 0.000000 PEG
21.548162 0.000000 PEG
23.089272 0.000000 PEG
24.740601 0.000000 PEG
26.510031 0.000000 PEG
28.406010 0.000000 PEG
30.437588 0.000000 PEG
32.614464 0.000000 PEG
34.947027 0.000000 PEG
37.446414 0.000000 PEG
40.124556 0.000000 PEG
42.994236 1.000000 PEG
46.069154 1.000000 PEG
49.363988 1.000000 PEG
52.894466 0.000000 PEG
56.677442 1.000000 PEG
60.730973 2.000000 PEG
65.074410 5.000000 PEG
69.728487 4.000000 PEG
74.715420 5.000000 PEG
80.059014 13.000000 PEG
85.784780 15.000000 PEG
91.920047 15.000000 PEG
98.494105 17.000000 PEG
105.538335 21.000000 PEG
113.086364 32.000000 PEG
121.174222 35.000000 PEG
129.840518 46.000000 PEG
139.126622 43.000000 PEG
149.076861 48.000000 PEG
159.738735 42.000000 PEG
171.163138 51.000000 PEG
183.404607 59.000000 PEG
196.521577 43.000000 PEG
210.576663 51.000000 PEG
225.636960 45.000000 PEG
241.774359 56.000000 PEG
259.065893 35.000000 PEG
277.594105 41.000000 PEG
297.447443 41.000000 PEG
318.720677 26.000000 PEG
341.515359 28.000000 PEG
365.940300 30.000000 PEG
392.112096 25.000000 PEG
420.155681 21.000000 PEG
450.204923 18.000000 PEG
482.403266 11.000000 PEG
516.904413 10.000000 PEG
553.873057 6.000000 PEG
593.485673 5.000000 PEG
635.931357 4.000000 PEG
681.412725 7.000000 PEG
730.146890 1.000000 PEG
782.366488 1.000000 PEG
838.320796 0.000000 PEG
898.276917 0.000000 PEG
962.521058 0.000000 PEG
1031.359895 0.000000 PEG
1105.122038 0.000000 PEG
1184.159599 0.000000 PEG
1268.849871 0.000000 PEG
1359.597132 0.000000 PEG
1456.834574 0.000000 PEG
1561.026371 0.000000 PEG
1672.669892 0.000000 PEG
1792.298081 0.000000 PEG
1920.481994 0.000000 PEG
2057.833532 0.000000 PEG
2205.008357 0.000000 PEG
2362.709022 0.000000 PEG
2531.688330 0.000000 PEG
2712.752921 0.000000 PEG
2906.767125 0.000000 PEG
3114.657090 0.000000 PEG
3337.415201 0.000000 PEG
3576.104818 0.000000 PEG
3831.865350 0.000000 PEG
4105.917697 0.000000 PEG
4399.570078 0.000000 PEG
4714.224274 0.000000 PEG
5051.382318 0.000000 PEG
5412.653672 0.000000 PEG
5799.762902 0.000000 PEG
